…
1.  4 pts. Join the two dataframes together by the common column ‘Code’.
    Name the resulting dataframe alpha.

<!-- -->

    library(tidyverse)
    library(dplyr)

    alpha <- full_join(DiversityData, Metadata, by = 'Code')
    alpha

    ## # A tibble: 70 × 9
    ##    Code   shannon invsimpson simpson richness Crop  Time_Point Replicate
    ##    <chr>    <dbl>      <dbl>   <dbl>    <dbl> <chr>      <dbl>     <dbl>
    ##  1 S01_13    6.62       211.   0.995     3319 Soil           0         1
    ##  2 S02_16    6.61       207.   0.995     3079 Soil           0         2
    ##  3 S03_19    6.66       213.   0.995     3935 Soil           0         3
    ##  4 S04_22    6.66       205.   0.995     3922 Soil           0         4
    ##  5 S05_25    6.61       200.   0.995     3196 Soil           0         5
    ##  6 S06_28    6.65       199.   0.995     3481 Soil           0         6
    ##  7 S61_32    6.57       200.   0.995     3250 Soil           6         1
    ##  8 S62_35    6.49       171.   0.994     3170 Soil           6         2
    ##  9 S63_38    6.61       192.   0.995     3657 Soil           6         3
    ## 10 S64_41    6.47       164.   0.994     3177 Soil           6         4
    ## # ℹ 60 more rows
    ## # ℹ 1 more variable: Water_Imbibed <chr>
1.  4 pts. Calculate Pielou’s evenness index: Pielou’s evenness is an
    ecological parameter calculated by the Shannon diversity index
    (column Shannon) divided by the log of the richness column.

<!-- -->

1.  Using mutate, create a new column to calculate Pielou’s evenness
    index.

<!-- -->

    alpha_even <- mutate(alpha, pielous = shannon/ log(richness))
    alpha_even

    ## # A tibble: 70 × 10
    ##    Code   shannon invsimpson simpson richness Crop  Time_Point Replicate
    ##    <chr>    <dbl>      <dbl>   <dbl>    <dbl> <chr>      <dbl>     <dbl>
    ##  1 S01_13    6.62       211.   0.995     3319 Soil           0         1
    ##  2 S02_16    6.61       207.   0.995     3079 Soil           0         2
    ##  3 S03_19    6.66       213.   0.995     3935 Soil           0         3
    ##  4 S04_22    6.66       205.   0.995     3922 Soil           0         4
    ##  5 S05_25    6.61       200.   0.995     3196 Soil           0         5
    ##  6 S06_28    6.65       199.   0.995     3481 Soil           0         6
    ##  7 S61_32    6.57       200.   0.995     3250 Soil           6         1
    ##  8 S62_35    6.49       171.   0.994     3170 Soil           6         2
    ##  9 S63_38    6.61       192.   0.995     3657 Soil           6         3
    ## 10 S64_41    6.47       164.   0.994     3177 Soil           6         4
    ## # ℹ 60 more rows
    ## # ℹ 2 more variables: Water_Imbibed <chr>, pielous <dbl>
…
